id,name,model_id:id,group_id:id,perm_read,perm_write,perm_create,perm_unlink

school_article_teacher,school.article.group_school_teacher,model_school_article,genext_school.group_school_teacher,1,1,1,1
school_article_comment_teacher,school.article.comment.group_school_teacher,model_school_article_comment,genext_school.group_school_teacher,1,1,1,1
school_article_like_teacher,school.article.like.group_school_teacher,model_school_article_like,genext_school.group_school_teacher,1,1,1,1
school_article_image_teacher,school.article.image.group_school_teacher,model_school_article_image,genext_school.group_school_teacher,1,1,1,1
school_appointment_teacher,school.appointment.group_school_teacher,model_school_appointment,genext_school.group_school_teacher,1,1,1,1



school_article_admin,school.article.group_school_administration,model_school_article,genext_school.group_school_administration,1,1,1,1
school_comment_admin,school.article.comment.group_school_administration,model_school_article_comment,genext_school.group_school_administration,1,1,1,1
school_like_admin,school.article.like.group_school_administration,model_school_article_like,genext_school.group_school_administration,1,1,1,1
school_image_admin,school.article.image.group_school_administration,model_school_article_image,genext_school.group_school_administration,1,1,1,1
sms_contact_admin,sms.contact.group_school_administration,model_sms_contact,genext_school.group_school_administration,1,1,1,1
sms_sms_admin,sms.sms.group_school_administration,model_sms_sms,genext_school.group_school_administration,1,1,1,1
school_sms_admin,school.sms.group_school_administration,model_school_sms,genext_school.group_school_administration,1,1,1,1
school_sms_setup_admin,school.sms.setup.group_school_administration,model_school_sms_setup,genext_school.group_school_administration,1,1,1,1
school_task_admin,school.task.group_school_administration,model_school_task,genext_school.group_school_administration,1,1,1,1
school_appointment_admin,school.appointment.group_school_administration,model_school_appointment,genext_school.group_school_administration,1,1,1,1
contact_as_admin,contact.as.group_school_administration,model_contact_as,genext_school.group_school_administration,1,1,1,1
notification_config_admin,notification.config.group_school_administration,model_notification_config,genext_school.group_school_administration,1,1,1,1
school_file_admin,school.file.group_school_administration,model_school_file,genext_school.group_school_administration,1,1,1,1

res_groups_admin,res.groups.group_school_administration,model_res_groups,genext_school.group_school_administration,1,1,1,1
message_sent_admin,message.sent.group_school_administration,model_message_sent,genext_school.group_school_administration,1,1,1,1


school_article_parent,school.article.group_school_parent,model_school_article,genext_school.group_school_parent,1,1,1,1
school_article_comment_parent,school.article.comment.group_school_parent,model_school_article_comment,genext_school.group_school_parent,1,1,1,1
school_article_like_parent,school.article.like.group_school_parent,model_school_article_like,genext_school.group_school_parent,1,1,1,1
school_article_image_parent,school.article.image.group_school_parent,model_school_article_image,genext_school.group_school_parent,1,1,1,1

school_article_image_parent,school.article.image.group_school_parent,model_school_article_image,genext_school.group_school_parent,1,1,1,1
school_appointment_parent,school.appointment.group_school_parent,model_school_appointment,genext_school.group_school_parent,1,1,1,1
contact_as_parent,contact.as.group_school_parent,model_contact_as,genext_school.group_school_parent,1,1,1,1
message_sent_parent,message.sent.group_school_parent,model_message_sent,genext_school.group_school_parent,1,1,1,1

email_email_parent,email.email.group_school_parent,model_email_email,genext_school.group_school_parent,1,1,1,1
email_config_parent,email.config.group_school_parent,model_email_config,genext_school.group_school_parent,1,1,1,1
relation_parent,school.parent.relation.group_school_parent,model_school_parent_relation,genext_school.group_school_parent,1,1,1,1
school_file_parent,school.file.group_school_parent,model_school_file,genext_school.group_school_parent,1,1,1,1
notification_config_parent,notification.config.group_school_parent,model_notification_config,genext_school.group_school_parent,1,1,1,1



school_article_scolarite,school.article.group_school_scolarite,model_school_article,genext_school.group_school_scolarite,1,1,1,1
school_comment_scolarite,school.article.comment.group_school_scolarite,model_school_article_comment,genext_school.group_school_scolarite,1,1,1,1
school_like_scolarite,school.article.like.group_school_scolarite,model_school_article_like,genext_school.group_school_scolarite,1,1,1,1
school_image_scolarite,school.article.image.group_school_scolarite,model_school_article_image,genext_school.group_school_scolarite,1,1,1,1
sms_contact_scolarite,sms.contact.group_school_scolarite,model_sms_contact,genext_school.group_school_scolarite,1,1,1,1
sms_sms_scolarite,sms.sms.group_school_scolarite,model_sms_sms,genext_school.group_school_scolarite,1,1,1,1
school_sms_scolarite,school.sms.group_school_scolarite,model_school_sms,genext_school.group_school_scolarite,1,1,1,1
school_sms_setup_scolarite,school.sms.setup.group_school_scolarite,model_school_sms_setup,genext_school.group_school_scolarite,1,1,1,1
school_task_scolarite,school.task.group_school_scolarite,model_school_task,genext_school.group_school_scolarite,1,1,1,1
school_appointment_scolarite,school.appointment.group_school_scolarite,model_school_appointment,genext_school.group_school_scolarite,1,1,1,1
contact_as_scolarite,contact.as.group_school_scolarite,model_contact_as,genext_school.group_school_scolarite,1,1,1,1
notification_config_scolarite,notification.config.group_school_scolarite,model_notification_config,genext_school.group_school_scolarite,1,1,1,1
school_file_scolarite,school.file.group_school_scolarite,model_school_file,genext_school.group_school_scolarite,1,1,1,1
res_groups_scolarite,res.groups.group_school_scolarite,model_res_groups,genext_school.group_school_scolarite,1,1,1,1
message_sent_scolarite,message.sent.group_school_scolarite,model_message_sent,genext_school.group_school_scolarite,1,1,1,1
email_email_scolarite,email.email.group_school_scolarite,model_email_email,genext_school.group_school_scolarite,1,1,1,1
email_config_scolarite,email.config.group_school_scolarite,model_email_config,genext_school.group_school_scolarite,1,1,1,1


