id,name,model_id:id,group_id:id,perm_read,perm_write,perm_create,perm_unlink

school_exam_teacher,school.exam.group_school_teacher,model_school_exam,genext_school.group_school_teacher,1,1,1,1
school_exam_type_teacher,school.exam.type.group_school_teacher,model_school_exam_type,genext_school.group_school_teacher,1,1,1,1
school_exam_note_teacher,school.exam.note.group_school_teacher,model_school_exam_note,genext_school.group_school_teacher,1,1,1,1
school_exam_note_line_teacher,school.exam.note.line.group_school_teacher,model_school_exam_note_line,genext_school.group_school_teacher,1,1,1,1


school_exam_admin,school.exam.group_school_administration,model_school_exam,genext_school.group_school_administration,1,1,1,1
school_exam_type_admin,school.exam.type.group_school_administration,model_school_exam_type,genext_school.group_school_administration,1,1,1,1
school_exam_note_admin,school.exam.note.group_school_administration,model_school_exam_note,genext_school.group_school_administration,1,1,1,1
school_exam_note_line_admin,school.exam.note.line.group_school_administration,model_school_exam_note_line,genext_school.group_school_administration,1,1,1,1


school_exam_parent,school.exam.group_school_parent,model_school_exam,genext_school.group_school_parent,1,1,1,1
school_exam_type_parent,school.exam.type.group_school_parent,model_school_exam_type,genext_school.group_school_parent,1,1,1,1
school_exam_note_parent,school.exam.note.group_school_parent,model_school_exam_note,genext_school.group_school_parent,1,1,1,1
school_exam_note_line_parent,school.exam.note.line.group_school_parent,model_school_exam_note_line,genext_school.group_school_parent,1,1,1,1



