id,name,model_id:id,group_id:id,perm_read,perm_write,perm_create,perm_unlink

school_exam_type_admin,school.exam.type.group_school_administration,model_school_exam_type,genext_school.group_school_administration,1,1,1,1
school_exam_periode_config_admin,school.exam.periode.config.group_school_administration,model_school_exam_periode_config,genext_school.group_school_administration,1,1,1,1
school_exam_periode_admin,school.exam.periode.group_school_administration,model_school_exam_periode,genext_school.group_school_administration,1,1,1,1
module_mark_admin,module.mark.group_school_administration,model_module_mark,genext_school.group_school_administration,1,1,1,1

school_exam_note_admin,school.exam.note.group_school_administration,model_school_exam_note,genext_school.group_school_administration,1,1,1,1
school_exam_note_line_admin,school.exam.note.line.group_school_administration,model_school_exam_note_line,genext_school.group_school_administration,1,1,1,1
exam_appreciation_module_admin,exam.appreciation.module.group_school_administration,model_exam_appreciation_module,genext_school.group_school_administration,1,1,1,1
exam_comment_line_admin,exam.comment.line.group_school_administration,model_exam_comment_line,genext_school.group_school_administration,1,1,1,1
exam_appreciation_council_admin,exam.appreciation.council.group_school_administration,model_exam_appreciation_council,genext_school.group_school_administration,1,1,1,1


school_module_average_line_admin,school.module.average.line.group_school_administration,model_school_module_average_line,genext_school.group_school_administration,1,1,1,1
school_period_average_line_admin,school.period.average.line.group_school_administration,model_school_period_average_line,genext_school.group_school_administration,1,1,1,1
admin_comment_admin,admin.comment.group_school_administration,model_admin_comment,genext_school.group_school_administration,1,1,1,1
school_exam_subject_config_admin,school.exam.subject.config.group_school_administration,model_school_exam_subject_config,genext_school.group_school_administration,1,1,1,1


school_exam_type_parent,school.exam.type.group_school_parent,model_school_exam_type,genext_school.group_school_parent,1,0,0,0
school_exam_periode_config_parent,school.exam.periode.config.group_school_parent,model_school_exam_periode_config,genext_school.group_school_parent,1,1,1,1
school_exam_periode_parent,school.exam.periode.group_school_parent,model_school_exam_periode,genext_school.group_school_parent,1,0,0,0
module_mark_parent,module.mark.group_school_parent,model_module_mark,genext_school.group_school_parent,1,0,0,0
school_exam_note_parent,school.exam.note.group_school_parent,model_school_exam_note,genext_school.group_school_parent,1,0,0,0
school_exam_note_line_parent,school.exam.note.line.group_school_parent,model_school_exam_note_line,genext_school.group_school_parent,1,0,0,0
exam_appreciation_module_parent,exam.appreciation.module.group_school_parent,model_exam_appreciation_module,genext_school.group_school_parent,1,0,0,0
exam_comment_line_parent,exam.comment.line.group_school_parent,model_exam_comment_line,genext_school.group_school_parent,1,0,0,0
exam_appreciation_council_parent,exam.appreciation.council.group_school_parent,model_exam_appreciation_council,genext_school.group_school_parent,1,0,0,0


school_module_average_line_parent,school.module.average.line.group_school_parent,model_school_module_average_line,genext_school.group_school_parent,1,0,0,0
school_period_average_line_parent,school.period.average.line.group_school_parent,model_school_period_average_line,genext_school.group_school_parent,1,0,0,0
admin_comment_parent,admin.comment.group_school_parent,model_admin_comment,genext_school.group_school_parent,1,0,0,0
school_exam_subject_config_parent,school.exam.subject.config.group_school_parent,model_school_exam_subject_config,genext_school.group_school_parent,1,0,0,0

school_exam_type_teacher,school.exam.type.group_school_teacher,model_school_exam_type,genext_school.group_school_teacher,1,1,0,0
school_exam_note_teacher,school.exam.note.group_school_teacher,model_school_exam_note,genext_school.group_school_teacher,1,1,1,1
school_exam_periode_config_teacher,school.exam.periode.config.group_school_teacher,model_school_exam_periode_config,genext_school.group_school_teacher,1,1,1,1
school_exam_periode_teacher,school.exam.periode.group_school_teacher,model_school_exam_periode,genext_school.group_school_teacher,1,0,0,0
module_mark_teacher,module.mark.group_school_teacher,model_module_mark,genext_school.group_school_teacher,1,0,0,0
school_exam_note_teacher,school.exam.note.group_school_teacher,model_school_exam_note,genext_school.group_school_teacher,1,1,1,1
school_exam_note_line_teacher,school.exam.note.line.group_school_teacher,model_school_exam_note_line,genext_school.group_school_teacher,1,1,1,1
school_exam_subject_config_teacher,school.exam.subject.config.group_school_teacher,model_school_exam_subject_config,genext_school.group_school_teacher,1,0,0,0
exam_appreciation_module_teacher,exam.appreciation.module.group_school_teacher,model_exam_appreciation_module,genext_school.group_school_teacher,1,1,1,1
exam_comment_line_teacher,exam.comment.line.group_school_teacher,model_exam_comment_line,genext_school.group_school_teacher,1,1,1,1
exam_appreciation_council_teacher,exam.appreciation.council.group_school_teacher,model_exam_appreciation_council,genext_school.group_school_teacher,1,0,0,0


school_module_average_line_teacher,school.module.average.line.group_school_teacher,model_school_module_average_line,genext_school.group_school_teacher,1,1,1,1
school_period_average_line_teacher,school.period.average.line.group_school_teacher,model_school_period_average_line,genext_school.group_school_teacher,1,0,0,0
admin_comment_teacher,admin.comment.group_school_teacher,model_admin_comment,genext_school.group_school_teacher,1,0,0,0


school_exam_type_exams,school.exam.type.group_school_exams,model_school_exam_type,genext_school.group_school_exams,1,1,1,1
school_exam_periode_config_exams,school.exam.periode.config.group_school_exams,model_school_exam_periode_config,genext_school.group_school_exams,1,1,1,1
school_exam_periode_exams,school.exam.periode.group_school_exams,model_school_exam_periode,genext_school.group_school_exams,1,1,1,1
module_mark_exams,module.mark.group_school_exams,model_module_mark,genext_school.group_school_exams,1,1,1,1
school_exam_note_exams,school.exam.note.group_school_exams,model_school_exam_note,genext_school.group_school_exams,1,1,1,1
school_exam_note_line_exams,school.exam.note.line.group_school_exams,model_school_exam_note_line,genext_school.group_school_exams,1,1,1,1
exam_appreciation_module_exams,exam.appreciation.module.group_school_exams,model_exam_appreciation_module,genext_school.group_school_exams,1,1,1,1
exam_comment_line_exams,exam.comment.line.group_school_exams,model_exam_comment_line,genext_school.group_school_exams,1,1,1,1
exam_appreciation_council_exams,exam.appreciation.council.group_school_exams,model_exam_appreciation_council,genext_school.group_school_exams,1,1,1,1
school_module_average_line_exams,school.module.average.line.group_school_exams,model_school_module_average_line,genext_school.group_school_exams,1,1,1,1
school_period_average_line_exams,school.period.average.line.group_school_exams,model_school_period_average_line,genext_school.group_school_exams,1,1,1,1
admin_comment_exams,admin.comment.group_school_exams,model_admin_comment,genext_school.group_school_exams,1,1,1,1
school_exam_subject_config_exams,school.exam.subject.config.group_school_exams,model_school_exam_subject_config,genext_school.group_school_exams,1,1,1,1